arbiter_tb.vcd
$date
	Wed Dec 18 15:44:41 2024
$end

$version
	Synopsys VCS version S-2021.09-SP1_Full64
$end

$timescale
	1ns
$end

$comment Csum: 1 a7df8538d4182422 $end


$scope module $unit $end
$upscope $end


$scope module arbiter_tb $end
$var reg 1 ! clk $end
$var reg 1 " reset_n $end

$scope begin unnamed$$_vcs_3 $end
$upscope $end


$scope begin unnamed$$_vcs_0 $end
$upscope $end


$scope begin unnamed$$_vcs_1 $end
$upscope $end


$scope begin unnamed$$_vcs_2 $end
$upscope $end


$scope module intf $end
$var reg 1 # clk $end
$var reg 1 $ reset_n $end
$var reg 32 % add_bus [31:0] $end
$var reg 4 & byte_en [3:0] $end
$var reg 1 ' wr_bus $end
$var reg 1 ( rd_bus $end
$var reg 32 ) data_bus_wr [31:0] $end
$var reg 32 * data_bus_rd [31:0] $end
$var reg 1 + ack_bus $end
$var reg 1 , cpu_bus $end
$upscope $end


$scope module dut $end
$var wire 32 - maddr [31:0] $end
$var wire 1 . mrd $end
$var wire 1 / mwr $end
$var wire 4 0 mbe [3:0] $end
$var wire 32 1 mdwr [31:0] $end
$var wire 32 2 mdrd [31:0] $end
$var wire 2 3 mack [1:0] $end
$var wire 1 4 mcpu $end
$var wire 32 5 saddr [31:0] $end
$var wire 1 6 srd $end
$var wire 1 7 swr $end
$var wire 4 8 sbe [3:0] $end
$var wire 32 9 sdwr [31:0] $end
$var wire 32 : sdrd [31:0] $end
$var wire 2 ; sack [1:0] $end
$var wire 1 < scpu $end
$var wire 32 = taddr [31:0] $end
$var wire 1 > trd $end
$var wire 1 ? twr $end
$var wire 4 @ tbe [3:0] $end
$var wire 32 A tdwr [31:0] $end
$var wire 32 B tdrd [31:0] $end
$var wire 2 C tack [1:0] $end
$var wire 1 D tcpu $end
$var wire 32 E eaddr [31:0] $end
$var wire 1 F erd $end
$var wire 1 G ewr $end
$var wire 4 H ebe [3:0] $end
$var wire 32 I edwr [31:0] $end
$var wire 32 J edrd [31:0] $end
$var wire 2 K eack [1:0] $end
$var wire 1 L ecpu $end
$var reg 32 M add_bus [31:0] $end
$var reg 4 N byte_en [3:0] $end
$var wire 1 O wr_bus $end
$var wire 1 P rd_bus $end
$var reg 32 Q data_bus_wr [31:0] $end
$var wire 32 R data_bus_rd [31:0] $end
$var wire 1 S ack_bus $end
$var reg 1 T cpu_bus $end
$var wire 1 U clk $end
$var wire 1 V reset_n $end
$var reg 13 W astm_stm [12:0] $end
$var reg 16 X timeout_cnt [15:0] $end
$var reg 32 Y data_bus_rd_d [31:0] $end
$var reg 3 Z current_m [2:0] $end
$var reg 3 [ next_m [2:0] $end
$var reg 1 \ timeout_d $end
$var wire 1 ] timeout $end
$var wire 16 ^ timeout_limit [15:0] $end
$var wire 13 _ next_astm_stm [12:0] $end
$upscope $end

$upscope $end

$enddefinitions $end

#0
$dumpvars
0!
0"
bxxxxxxxxxxxxxxxxxxxxxxxxxxxxxxxx *
b00000000000000000000000000000000 )
b0000 &
b00000000000000000000000000000000 %
0T
0]
0\
b00000000000000000000000000000000 M
b0000000000001 W
b0000 N
b000 Z
b00000000000000000000000000000000 Y
b00000000000000000000000000000000 Q
b0xx0xx0xx0xxx _
bxxx [
b0000000000000000 X
b1111111111111110 ^
0U
0V
0O
0P
0#
0$
x4
bxxxxxxxxxxxxxxxxxxxxxxxxxxxxxxxx -
x.
x/
bxxxx 0
bxxxxxxxxxxxxxxxxxxxxxxxxxxxxxxxx 1
b00000000000000000000000000000000 2
b00 3
x<
bxxxxxxxxxxxxxxxxxxxxxxxxxxxxxxxx 5
x6
x7
bxxxx 8
bxxxxxxxxxxxxxxxxxxxxxxxxxxxxxxxx 9
b00000000000000000000000000000000 :
b00 ;
xD
bxxxxxxxxxxxxxxxxxxxxxxxxxxxxxxxx =
x>
x?
bxxxx @
bxxxxxxxxxxxxxxxxxxxxxxxxxxxxxxxx A
b00000000000000000000000000000000 B
b00 C
xL
bxxxxxxxxxxxxxxxxxxxxxxxxxxxxxxxx E
xF
xG
bxxxx H
bxxxxxxxxxxxxxxxxxxxxxxxxxxxxxxxx I
b00000000000000000000000000000000 J
b00 K
bxxxxxxxxxxxxxxxxxxxxxxxxxxxxxxxx R
xS
x+
0,
0(
0'
$end
#5
1!
1U
1#
#10
0!
0U
0#
#15
1!
1U
1#
#20
0!
0U
0#
#25
1!
1U
1#
#30
0!
0U
0#
#35
1!
1U
1#
#40
0!
0U
0#
#45
1!
1U
1#
1"
1V
1$
b00000000000000000000000000000000 -
0.
0/
b0000 0
b00000000000000000000000000000000 1
04
0+
0S
b00000000000000000000000000000000 *
b00000000000000000000000000000000 R
b0xx0xx0xx000x _
#50
0!
0U
0#
#55
1!
1U
1#
b0xx0xx0xx000x W
xP
x(
xO
x'
#60
0!
0U
0#
#65
1!
1U
1#
b0000000000001 W
0P
0(
0O
0'
b00001011001100011000000001000100 -
1/
b1110 0
b11001001011111000001011010101001 1
14
b0xx0xx0xx00xx _
#70
0!
0U
0#
#75
1!
1U
1#
bxxxxxxxxxxxxxxxxxxxxxxxxxxxxxxxx M
bxxxxxxxxxxxxxxxxxxxxxxxxxxxxxxxx %
bxxxx N
bxxxx &
xT
x,
bxxxxxxxxxxxxxxxxxxxxxxxxxxxxxxxx Q
bxxxxxxxxxxxxxxxxxxxxxxxxxxxxxxxx )
bxxx Z
b0xx0xx0xx00xx W
xP
x(
xO
x'
b000 [
b0000000000010 _
#80
0!
0U
0#
#85
1!
1U
1#
b0000000000001 W
0P
0(
0O
0'
#90
0!
0U
0#
#95
1!
1U
1#
b00001011001100011000000001000100 M
b00001011001100011000000001000100 %
b1110 N
b1110 &
1T
1,
b11001001011111000001011010101001 Q
b11001001011111000001011010101001 )
b000 Z
b0000000000010 W
1O
1'
bxxx [
b0xx0xx0xx00xx _
#100
0!
0U
0#
#105
1!
1U
1#
1+
1S
b0000000000000001 X
#110
0!
0U
0#
#115
1!
1U
1#
0+
0S
b00000000000000000000000000000000 M
b00000000000000000000000000000000 %
b0000 N
b0000 &
0T
0,
b00000000000000000000000000000000 Q
b00000000000000000000000000000000 )
b0000000001000 W
b01 3
0O
0'
b0000000000000010 X
#120
0!
0U
0#
#125
1!
1U
1#
bxxxxxxxxxxxxxxxxxxxxxxxxxxxxxxxx M
bxxxxxxxxxxxxxxxxxxxxxxxxxxxxxxxx %
bxxxx N
bxxxx &
xT
x,
bxxxxxxxxxxxxxxxxxxxxxxxxxxxxxxxx Q
bxxxxxxxxxxxxxxxxxxxxxxxxxxxxxxxx )
bxxx Z
b0xx0xx0xx00xx W
b00 3
xP
x(
xO
x'
b0000000000000000 X
b00000000000000000000000000000000 -
0/
b0000 0
b00000000000000000000000000000000 1
b0xx0xx0xx000x _
#130
0!
0U
0#
#135
1!
1U
1#
b0000000000001 W
0P
0(
0O
0'
b00001100001111111111011100111000 -
1.
b0101 0
b00000001011111010101011001010110 1
b000 [
b0000000000100 _
#140
0!
0U
0#
#145
1!
1U
1#
b00001100001111111111011100111000 M
b00001100001111111111011100111000 %
b0101 N
b0101 &
1T
1,
b00000001011111010101011001010110 Q
b00000001011111010101011001010110 )
b000 Z
b0000000000100 W
1P
1(
bxxx [
b0xx0xx0xx0x0x _
#150
0!
0U
0#
#155
1!
1U
1#
1+
1S
b01010110010000110010011110111000 *
b01010110010000110010011110111000 R
b0000000000000001 X
#160
0!
0U
0#
#165
1!
1U
1#
0+
0S
b00000000000000000000000000000000 *
b00000000000000000000000000000000 R
b00000000000000000000000000000000 M
b00000000000000000000000000000000 %
b0000 N
b0000 &
0T
0,
b00000000000000000000000000000000 Q
b00000000000000000000000000000000 )
b01010110010000110010011110111000 Y
b01010110010000110010011110111000 J
b01010110010000110010011110111000 B
b01010110010000110010011110111000 :
b01010110010000110010011110111000 2
b0000000001000 W
b01 3
0P
0(
b0000000000000010 X
#170
0!
0U
0#
#175
1!
1U
1#
bxxxxxxxxxxxxxxxxxxxxxxxxxxxxxxxx M
bxxxxxxxxxxxxxxxxxxxxxxxxxxxxxxxx %
bxxxx N
bxxxx &
xT
x,
bxxxxxxxxxxxxxxxxxxxxxxxxxxxxxxxx Q
bxxxxxxxxxxxxxxxxxxxxxxxxxxxxxxxx )
bxxx Z
b0xx0xx0xx0x0x W
b00 3
xP
x(
xO
x'
b0000000000000000 X
b00000000000000000000000000000000 -
0.
b0000 0
b00000000000000000000000000000000 1
b0xx0xx0xx000x _
#180
0!
0U
0#
#185
1!
1U
1#
b0000000000001 W
0P
0(
0O
0'
b00000111001011110101101001111001 -
1/
b0101 0
b11100110001111110110100111100010 1
b000 [
b0000000000010 _
#190
0!
0U
0#
#195
1!
1U
1#
b00000111001011110101101001111001 M
b00000111001011110101101001111001 %
b0101 N
b0101 &
1T
1,
b11100110001111110110100111100010 Q
b11100110001111110110100111100010 )
b000 Z
b0000000000010 W
1O
1'
bxxx [
b0xx0xx0xx00xx _
#200
0!
0U
0#
#205
1!
1U
1#
1+
1S
b0000000000000001 X
#210
0!
0U
0#
#215
1!
1U
1#
0+
0S
b00000000000000000000000000000000 M
b00000000000000000000000000000000 %
b0000 N
b0000 &
0T
0,
b00000000000000000000000000000000 Q
b00000000000000000000000000000000 )
b00000000000000000000000000000000 Y
b00000000000000000000000000000000 J
b00000000000000000000000000000000 B
b00000000000000000000000000000000 :
b00000000000000000000000000000000 2
b0000000001000 W
b01 3
0O
0'
b0000000000000010 X
#220
0!
0U
0#
#225
1!
1U
1#
bxxxxxxxxxxxxxxxxxxxxxxxxxxxxxxxx M
bxxxxxxxxxxxxxxxxxxxxxxxxxxxxxxxx %
bxxxx N
bxxxx &
xT
x,
bxxxxxxxxxxxxxxxxxxxxxxxxxxxxxxxx Q
bxxxxxxxxxxxxxxxxxxxxxxxxxxxxxxxx )
bxxx Z
b0xx0xx0xx00xx W
b00 3
xP
x(
xO
x'
b0000000000000000 X
b00000000000000000000000000000000 -
0/
b0000 0
b00000000000000000000000000000000 1
b0xx0xx0xx000x _
#230
0!
0U
0#
#235
1!
1U
1#
b0000000000001 W
0P
0(
0O
0'
b00001010001100001011011100111001 -
1.
b1110 0
b01101101101101010100000011100011 1
b000 [
b0000000000100 _
#240
0!
0U
0#
#245
1!
1U
1#
b00001010001100001011011100111001 M
b00001010001100001011011100111001 %
b1110 N
b1110 &
1T
1,
b01101101101101010100000011100011 Q
b01101101101101010100000011100011 )
b000 Z
b0000000000100 W
1P
1(
bxxx [
b0xx0xx0xx0x0x _
#250
0!
0U
0#
#255
1!
1U
1#
1+
1S
b00001011000010111001111101000011 *
b00001011000010111001111101000011 R
b0000000000000001 X
#260
0!
0U
0#
#265
1!
1U
1#
0+
0S
b00000000000000000000000000000000 *
b00000000000000000000000000000000 R
b00000000000000000000000000000000 M
b00000000000000000000000000000000 %
b0000 N
b0000 &
0T
0,
b00000000000000000000000000000000 Q
b00000000000000000000000000000000 )
b00001011000010111001111101000011 Y
b00001011000010111001111101000011 J
b00001011000010111001111101000011 B
b00001011000010111001111101000011 :
b00001011000010111001111101000011 2
b0000000001000 W
b01 3
0P
0(
b0000000000000010 X
#270
0!
0U
0#
#275
1!
1U
1#
bxxxxxxxxxxxxxxxxxxxxxxxxxxxxxxxx M
bxxxxxxxxxxxxxxxxxxxxxxxxxxxxxxxx %
bxxxx N
bxxxx &
xT
x,
bxxxxxxxxxxxxxxxxxxxxxxxxxxxxxxxx Q
bxxxxxxxxxxxxxxxxxxxxxxxxxxxxxxxx )
bxxx Z
b0xx0xx0xx0x0x W
b00 3
xP
x(
xO
x'
b0000000000000000 X
b00000000000000000000000000000000 -
0.
b0000 0
b00000000000000000000000000000000 1
b0xx0xx0xx000x _
#280
0!
0U
0#
#285
1!
1U
1#
b0000000000001 W
0P
0(
0O
0'
b00000011100011010010000001101000 -
1/
b0010 0
b11110101111111101100011111011101 1
b000 [
b0000000000010 _
#290
0!
0U
0#
#295
1!
1U
1#
b00000011100011010010000001101000 M
b00000011100011010010000001101000 %
b0010 N
b0010 &
1T
1,
b11110101111111101100011111011101 Q
b11110101111111101100011111011101 )
b000 Z
b0000000000010 W
1O
1'
bxxx [
b0xx0xx0xx00xx _
#300
0!
0U
0#
#305
1!
1U
1#
1+
1S
b0000000000000001 X
#310
0!
0U
0#
#315
1!
1U
1#
0+
0S
b00000000000000000000000000000000 M
b00000000000000000000000000000000 %
b0000 N
b0000 &
0T
0,
b00000000000000000000000000000000 Q
b00000000000000000000000000000000 )
b00000000000000000000000000000000 Y
b00000000000000000000000000000000 J
b00000000000000000000000000000000 B
b00000000000000000000000000000000 :
b00000000000000000000000000000000 2
b0000000001000 W
b01 3
0O
0'
b0000000000000010 X
#320
0!
0U
0#
#325
1!
1U
1#
bxxxxxxxxxxxxxxxxxxxxxxxxxxxxxxxx M
bxxxxxxxxxxxxxxxxxxxxxxxxxxxxxxxx %
bxxxx N
bxxxx &
xT
x,
bxxxxxxxxxxxxxxxxxxxxxxxxxxxxxxxx Q
bxxxxxxxxxxxxxxxxxxxxxxxxxxxxxxxx )
bxxx Z
b0xx0xx0xx00xx W
b00 3
xP
x(
xO
x'
b0000000000000000 X
b00000000000000000000000000000000 -
0/
b0000 0
b00000000000000000000000000000000 1
b0xx0xx0xx000x _
#330
0!
0U
0#
#335
1!
1U
1#
b0000000000001 W
0P
0(
0O
0'
b00001011010100010111001011100111 -
1/
b1110 0
b11111000001100111101001111101011 1
b000 [
b0000000000010 _
#340
0!
0U
0#
#345
1!
1U
1#
b00001011010100010111001011100111 M
b00001011010100010111001011100111 %
b1110 N
b1110 &
1T
1,
b11111000001100111101001111101011 Q
b11111000001100111101001111101011 )
b000 Z
b0000000000010 W
1O
1'
bxxx [
b0xx0xx0xx00xx _
#350
0!
0U
0#
#355
1!
1U
1#
1+
1S
b0000000000000001 X
#360
0!
0U
0#
#365
1!
1U
1#
0+
0S
b00000000000000000000000000000000 M
b00000000000000000000000000000000 %
b0000 N
b0000 &
0T
0,
b00000000000000000000000000000000 Q
b00000000000000000000000000000000 )
b0000000001000 W
b01 3
0O
0'
b0000000000000010 X
#370
0!
0U
0#
#375
1!
1U
1#
bxxxxxxxxxxxxxxxxxxxxxxxxxxxxxxxx M
bxxxxxxxxxxxxxxxxxxxxxxxxxxxxxxxx %
bxxxx N
bxxxx &
xT
x,
bxxxxxxxxxxxxxxxxxxxxxxxxxxxxxxxx Q
bxxxxxxxxxxxxxxxxxxxxxxxxxxxxxxxx )
bxxx Z
b0xx0xx0xx00xx W
b00 3
xP
x(
xO
x'
b0000000000000000 X
b00000000000000000000000000000000 -
0/
b0000 0
b00000000000000000000000000000000 1
b0xx0xx0xx000x _
#380
0!
0U
0#
#385
1!
1U
1#
b0000000000001 W
0P
0(
0O
0'
b00000110101000100101010011011100 -
1/
b1101 0
b01000110110011000101000001001000 1
b000 [
b0000000000010 _
#390
0!
0U
0#
#395
1!
1U
1#
b00000110101000100101010011011100 M
b00000110101000100101010011011100 %
b1101 N
b1101 &
1T
1,
b01000110110011000101000001001000 Q
b01000110110011000101000001001000 )
b000 Z
b0000000000010 W
1O
1'
bxxx [
b0xx0xx0xx00xx _
#400
0!
0U
0#
#405
1!
1U
1#
1+
1S
b0000000000000001 X
#410
0!
0U
0#
#415
1!
1U
1#
0+
0S
b00000000000000000000000000000000 M
b00000000000000000000000000000000 %
b0000 N
b0000 &
0T
0,
b00000000000000000000000000000000 Q
b00000000000000000000000000000000 )
b0000000001000 W
b01 3
0O
0'
b0000000000000010 X
#420
0!
0U
0#
#425
1!
1U
1#
bxxxxxxxxxxxxxxxxxxxxxxxxxxxxxxxx M
bxxxxxxxxxxxxxxxxxxxxxxxxxxxxxxxx %
bxxxx N
bxxxx &
xT
x,
bxxxxxxxxxxxxxxxxxxxxxxxxxxxxxxxx Q
bxxxxxxxxxxxxxxxxxxxxxxxxxxxxxxxx )
bxxx Z
b0xx0xx0xx00xx W
b00 3
xP
x(
xO
x'
b0000000000000000 X
b00000000000000000000000000000000 -
0/
b0000 0
b00000000000000000000000000000000 1
b0xx0xx0xx000x _
#430
0!
0U
0#
#435
1!
1U
1#
b0000000000001 W
0P
0(
0O
0'
b00001010111011001110000010110000 -
1/
b1010 0
b10110100110101110101101000011011 1
b000 [
b0000000000010 _
#440
0!
0U
0#
#445
1!
1U
1#
b00001010111011001110000010110000 M
b00001010111011001110000010110000 %
b1010 N
b1010 &
1T
1,
b10110100110101110101101000011011 Q
b10110100110101110101101000011011 )
b000 Z
b0000000000010 W
1O
1'
bxxx [
b0xx0xx0xx00xx _
#450
0!
0U
0#
#455
1!
1U
1#
1+
1S
b0000000000000001 X
#460
0!
0U
0#
#465
1!
1U
1#
0+
0S
b00000000000000000000000000000000 M
b00000000000000000000000000000000 %
b0000 N
b0000 &
0T
0,
b00000000000000000000000000000000 Q
b00000000000000000000000000000000 )
b0000000001000 W
b01 3
0O
0'
b0000000000000010 X
#470
0!
0U
0#
#475
1!
1U
1#
bxxxxxxxxxxxxxxxxxxxxxxxxxxxxxxxx M
bxxxxxxxxxxxxxxxxxxxxxxxxxxxxxxxx %
bxxxx N
bxxxx &
xT
x,
bxxxxxxxxxxxxxxxxxxxxxxxxxxxxxxxx Q
bxxxxxxxxxxxxxxxxxxxxxxxxxxxxxxxx )
bxxx Z
b0xx0xx0xx00xx W
b00 3
xP
x(
xO
x'
b0000000000000000 X
b00000000000000000000000000000000 -
0/
b0000 0
b00000000000000000000000000000000 1
b0xx0xx0xx000x _
#480
0!
0U
0#
#485
1!
1U
1#
b0000000000001 W
0P
0(
0O
0'
b00000110010000100011110100001101 -
1.
b1110 0
b00001111110101110110111100010101 1
b000 [
b0000000000100 _
#490
0!
0U
0#
#495
1!
1U
1#
b00000110010000100011110100001101 M
b00000110010000100011110100001101 %
b1110 N
b1110 &
1T
1,
b00001111110101110110111100010101 Q
b00001111110101110110111100010101 )
b000 Z
b0000000000100 W
1P
1(
bxxx [
b0xx0xx0xx0x0x _
#500
0!
0U
0#
#505
1!
1U
1#
1+
1S
b10111101100010100110101010011100 *
b10111101100010100110101010011100 R
b0000000000000001 X
#510
0!
0U
0#
#515
1!
1U
1#
0+
0S
b00000000000000000000000000000000 *
b00000000000000000000000000000000 R
b00000000000000000000000000000000 M
b00000000000000000000000000000000 %
b0000 N
b0000 &
0T
0,
b00000000000000000000000000000000 Q
b00000000000000000000000000000000 )
b10111101100010100110101010011100 Y
b10111101100010100110101010011100 J
b10111101100010100110101010011100 B
b10111101100010100110101010011100 :
b10111101100010100110101010011100 2
b0000000001000 W
b01 3
0P
0(
b0000000000000010 X
#520
0!
0U
0#
#525
1!
1U
1#
bxxxxxxxxxxxxxxxxxxxxxxxxxxxxxxxx M
bxxxxxxxxxxxxxxxxxxxxxxxxxxxxxxxx %
bxxxx N
bxxxx &
xT
x,
bxxxxxxxxxxxxxxxxxxxxxxxxxxxxxxxx Q
bxxxxxxxxxxxxxxxxxxxxxxxxxxxxxxxx )
bxxx Z
b0xx0xx0xx0x0x W
b00 3
xP
x(
xO
x'
b0000000000000000 X
b00000000000000000000000000000000 -
0.
b0000 0
b00000000000000000000000000000000 1
b0xx0xx0xx000x _
#530
0!
0U
0#
#535
1!
1U
1#
b0000000000001 W
0P
0(
0O
0'
b00000111011001100001000110010011 -
1.
b0001 0
b01011100001111101101110001001111 1
b000 [
b0000000000100 _
#540
0!
0U
0#
#545
1!
1U
1#
b00000111011001100001000110010011 M
b00000111011001100001000110010011 %
b0001 N
b0001 &
1T
1,
b01011100001111101101110001001111 Q
b01011100001111101101110001001111 )
b000 Z
b0000000000100 W
1P
1(
bxxx [
b0xx0xx0xx0x0x _
#550
0!
0U
0#
#555
1!
1U
1#
1+
1S
b10111001010011010001011000010001 *
b10111001010011010001011000010001 R
b0000000000000001 X
#560
0!
0U
0#
#565
1!
1U
1#
0+
0S
b00000000000000000000000000000000 *
b00000000000000000000000000000000 R
b00000000000000000000000000000000 M
b00000000000000000000000000000000 %
b0000 N
b0000 &
0T
0,
b00000000000000000000000000000000 Q
b00000000000000000000000000000000 )
b10111001010011010001011000010001 Y
b10111001010011010001011000010001 J
b10111001010011010001011000010001 B
b10111001010011010001011000010001 :
b10111001010011010001011000010001 2
b0000000001000 W
b01 3
0P
0(
b0000000000000010 X
#570
0!
0U
0#
#575
1!
1U
1#
bxxxxxxxxxxxxxxxxxxxxxxxxxxxxxxxx M
bxxxxxxxxxxxxxxxxxxxxxxxxxxxxxxxx %
bxxxx N
bxxxx &
xT
x,
bxxxxxxxxxxxxxxxxxxxxxxxxxxxxxxxx Q
bxxxxxxxxxxxxxxxxxxxxxxxxxxxxxxxx )
bxxx Z
b0xx0xx0xx0x0x W
b00 3
xP
x(
xO
x'
b0000000000000000 X
b00000000000000000000000000000000 -
0.
b0000 0
b00000000000000000000000000000000 1
b0xx0xx0xx000x _
#580
0!
0U
0#
#585
1!
1U
1#
b0000000000001 W
0P
0(
0O
0'
b00000100101111110101111101000011 -
1.
b0110 0
b10100001001000110100101101001101 1
b000 [
b0000000000100 _
#590
0!
0U
0#
#595
1!
1U
1#
b00000100101111110101111101000011 M
b00000100101111110101111101000011 %
b0110 N
b0110 &
1T
1,
b10100001001000110100101101001101 Q
b10100001001000110100101101001101 )
b000 Z
b0000000000100 W
1P
1(
bxxx [
b0xx0xx0xx0x0x _
#600
0!
0U
0#
#605
1!
1U
1#
1+
1S
b00001111100111111100100111110110 *
b00001111100111111100100111110110 R
b0000000000000001 X
#610
0!
0U
0#
#615
1!
1U
1#
0+
0S
b00000000000000000000000000000000 *
b00000000000000000000000000000000 R
b00000000000000000000000000000000 M
b00000000000000000000000000000000 %
b0000 N
b0000 &
0T
0,
b00000000000000000000000000000000 Q
b00000000000000000000000000000000 )
b00001111100111111100100111110110 Y
b00001111100111111100100111110110 J
b00001111100111111100100111110110 B
b00001111100111111100100111110110 :
b00001111100111111100100111110110 2
b0000000001000 W
b01 3
0P
0(
b0000000000000010 X
#620
0!
0U
0#
#625
1!
1U
1#
bxxxxxxxxxxxxxxxxxxxxxxxxxxxxxxxx M
bxxxxxxxxxxxxxxxxxxxxxxxxxxxxxxxx %
bxxxx N
bxxxx &
xT
x,
bxxxxxxxxxxxxxxxxxxxxxxxxxxxxxxxx Q
bxxxxxxxxxxxxxxxxxxxxxxxxxxxxxxxx )
bxxx Z
b0xx0xx0xx0x0x W
b00 3
xP
x(
xO
x'
b0000000000000000 X
b00000000000000000000000000000000 -
0.
b0000 0
b00000000000000000000000000000000 1
b0xx0xx0xx000x _
#630
0!
0U
0#
#635
1!
1U
1#
b0000000000001 W
0P
0(
0O
0'
b00001100011011011010001001001110 -
1/
b0001 0
b01011110011111101111000000100011 1
b000 [
b0000000000010 _
#640
0!
0U
0#
#645
1!
1U
1#
b00001100011011011010001001001110 M
b00001100011011011010001001001110 %
b0001 N
b0001 &
1T
1,
b01011110011111101111000000100011 Q
b01011110011111101111000000100011 )
b000 Z
b0000000000010 W
1O
1'
bxxx [
b0xx0xx0xx00xx _
#650
0!
0U
0#
#655
1!
1U
1#
1+
1S
b0000000000000001 X
#660
0!
0U
0#
#665
1!
1U
1#
0+
0S
b00000000000000000000000000000000 M
b00000000000000000000000000000000 %
b0000 N
b0000 &
0T
0,
b00000000000000000000000000000000 Q
b00000000000000000000000000000000 )
b00000000000000000000000000000000 Y
b00000000000000000000000000000000 J
b00000000000000000000000000000000 B
b00000000000000000000000000000000 :
b00000000000000000000000000000000 2
b0000000001000 W
b01 3
0O
0'
b0000000000000010 X
#670
0!
0U
0#
#675
1!
1U
1#
bxxxxxxxxxxxxxxxxxxxxxxxxxxxxxxxx M
bxxxxxxxxxxxxxxxxxxxxxxxxxxxxxxxx %
bxxxx N
bxxxx &
xT
x,
bxxxxxxxxxxxxxxxxxxxxxxxxxxxxxxxx Q
bxxxxxxxxxxxxxxxxxxxxxxxxxxxxxxxx )
bxxx Z
b0xx0xx0xx00xx W
b00 3
xP
x(
xO
x'
b0000000000000000 X
b00000000000000000000000000000000 -
0/
b0000 0
b00000000000000000000000000000000 1
b0xx0xx0xx000x _
#680
0!
0U
0#
#685
1!
1U
1#
b0000000000001 W
0P
0(
0O
0'
b00001011110011001110101100110111 -
1.
b1011 0
b10101010100001000100011111000100 1
b000 [
b0000000000100 _
#690
0!
0U
0#
#695
1!
1U
1#
b00001011110011001110101100110111 M
b00001011110011001110101100110111 %
b1011 N
b1011 &
1T
1,
b10101010100001000100011111000100 Q
b10101010100001000100011111000100 )
b000 Z
b0000000000100 W
1P
1(
bxxx [
b0xx0xx0xx0x0x _
#700
0!
0U
0#
#705
1!
1U
1#
1+
1S
b00010001000101100011101110111110 *
b00010001000101100011101110111110 R
b0000000000000001 X
#710
0!
0U
0#
#715
1!
1U
1#
0+
0S
b00000000000000000000000000000000 *
b00000000000000000000000000000000 R
b00000000000000000000000000000000 M
b00000000000000000000000000000000 %
b0000 N
b0000 &
0T
0,
b00000000000000000000000000000000 Q
b00000000000000000000000000000000 )
b00010001000101100011101110111110 Y
b00010001000101100011101110111110 J
b00010001000101100011101110111110 B
b00010001000101100011101110111110 :
b00010001000101100011101110111110 2
b0000000001000 W
b01 3
0P
0(
b0000000000000010 X
#720
0!
0U
0#
#725
1!
1U
1#
bxxxxxxxxxxxxxxxxxxxxxxxxxxxxxxxx M
bxxxxxxxxxxxxxxxxxxxxxxxxxxxxxxxx %
bxxxx N
bxxxx &
xT
x,
bxxxxxxxxxxxxxxxxxxxxxxxxxxxxxxxx Q
bxxxxxxxxxxxxxxxxxxxxxxxxxxxxxxxx )
bxxx Z
b0xx0xx0xx0x0x W
b00 3
xP
x(
xO
x'
b0000000000000000 X
b00000000000000000000000000000000 -
0.
b0000 0
b00000000000000000000000000000000 1
b0xx0xx0xx000x _
#730
0!
0U
0#
#735
1!
1U
1#
b0000000000001 W
0P
0(
0O
0'
b00000101100100101001110010100011 -
1/
b1001 0
b10010110100100111001100011010110 1
b000 [
b0000000000010 _
#740
0!
0U
0#
#745
1!
1U
1#
b00000101100100101001110010100011 M
b00000101100100101001110010100011 %
b1001 N
b1001 &
1T
1,
b10010110100100111001100011010110 Q
b10010110100100111001100011010110 )
b000 Z
b0000000000010 W
1O
1'
bxxx [
b0xx0xx0xx00xx _
#750
0!
0U
0#
#755
1!
1U
1#
1+
1S
b0000000000000001 X
#760
0!
0U
0#
#765
1!
1U
1#
0+
0S
b00000000000000000000000000000000 M
b00000000000000000000000000000000 %
b0000 N
b0000 &
0T
0,
b00000000000000000000000000000000 Q
b00000000000000000000000000000000 )
b00000000000000000000000000000000 Y
b00000000000000000000000000000000 J
b00000000000000000000000000000000 B
b00000000000000000000000000000000 :
b00000000000000000000000000000000 2
b0000000001000 W
b01 3
0O
0'
b0000000000000010 X
#770
0!
0U
0#
#775
1!
1U
1#
bxxxxxxxxxxxxxxxxxxxxxxxxxxxxxxxx M
bxxxxxxxxxxxxxxxxxxxxxxxxxxxxxxxx %
bxxxx N
bxxxx &
xT
x,
bxxxxxxxxxxxxxxxxxxxxxxxxxxxxxxxx Q
bxxxxxxxxxxxxxxxxxxxxxxxxxxxxxxxx )
bxxx Z
b0xx0xx0xx00xx W
b00 3
xP
x(
xO
x'
b0000000000000000 X
b00000000000000000000000000000000 -
0/
b0000 0
b00000000000000000000000000000000 1
b0xx0xx0xx000x _
#780
0!
0U
0#
#785
1!
1U
1#
b0000000000001 W
0P
0(
0O
0'
b00001110010101001110111000010101 -
1.
b0001 0
b01000001111100011000001110010000 1
b000 [
b0000000000100 _
#790
0!
0U
0#
#795
1!
1U
1#
b00001110010101001110111000010101 M
b00001110010101001110111000010101 %
b0001 N
b0001 &
1T
1,
b01000001111100011000001110010000 Q
b01000001111100011000001110010000 )
b000 Z
b0000000000100 W
1P
1(
bxxx [
b0xx0xx0xx0x0x _
#800
0!
0U
0#
#805
1!
1U
1#
1+
1S
b11110001111011001000000011100110 *
b11110001111011001000000011100110 R
b0000000000000001 X
#810
0!
0U
0#
#815
1!
1U
1#
0+
0S
b00000000000000000000000000000000 *
b00000000000000000000000000000000 R
b00000000000000000000000000000000 M
b00000000000000000000000000000000 %
b0000 N
b0000 &
0T
0,
b00000000000000000000000000000000 Q
b00000000000000000000000000000000 )
b11110001111011001000000011100110 Y
b11110001111011001000000011100110 J
b11110001111011001000000011100110 B
b11110001111011001000000011100110 :
b11110001111011001000000011100110 2
b0000000001000 W
b01 3
0P
0(
b0000000000000010 X
#820
0!
0U
0#
#825
1!
1U
1#
bxxxxxxxxxxxxxxxxxxxxxxxxxxxxxxxx M
bxxxxxxxxxxxxxxxxxxxxxxxxxxxxxxxx %
bxxxx N
bxxxx &
xT
x,
bxxxxxxxxxxxxxxxxxxxxxxxxxxxxxxxx Q
bxxxxxxxxxxxxxxxxxxxxxxxxxxxxxxxx )
bxxx Z
b0xx0xx0xx0x0x W
b00 3
xP
x(
xO
x'
b0000000000000000 X
b00000000000000000000000000000000 -
0.
b0000 0
b00000000000000000000000000000000 1
b0xx0xx0xx000x _
#830
0!
0U
0#
#835
1!
1U
1#
b0000000000001 W
0P
0(
0O
0'
b00001110001101010101001010110001 -
1.
b0110 0
b01111111010111100111011110000110 1
b000 [
b0000000000100 _
#840
0!
0U
0#
#845
1!
1U
1#
b00001110001101010101001010110001 M
b00001110001101010101001010110001 %
b0110 N
b0110 &
1T
1,
b01111111010111100111011110000110 Q
b01111111010111100111011110000110 )
b000 Z
b0000000000100 W
1P
1(
bxxx [
b0xx0xx0xx0x0x _
#850
0!
0U
0#
#855
1!
1U
1#
1+
1S
b10111101000110111011111010001011 *
b10111101000110111011111010001011 R
b0000000000000001 X
#860
0!
0U
0#
