dump.vcd
$date
	Tue Dec 24 23:46:08 2024
$end

$version
	Synopsys VCS version S-2021.09-SP1_Full64
$end

$timescale
	1ns
$end

$comment Csum: 1 1f199a32ef10cefe $end


$scope module $unit $end
$upscope $end


$scope module arbiter_tb $end
$var reg 1 ! clk $end
$var reg 1 " reset_n $end

$scope begin unnamed$$_vcs_3 $end
$upscope $end


$scope begin unnamed$$_vcs_0 $end
$upscope $end


$scope begin unnamed$$_vcs_1 $end
$upscope $end


$scope begin unnamed$$_vcs_2 $end
$upscope $end


$scope module intf $end
$var reg 1 # clk $end
$var reg 1 $ reset_n $end
$var reg 32 % add_bus [31:0] $end
$var reg 4 & byte_en [3:0] $end
$var reg 1 ' wr_bus $end
$var reg 1 ( rd_bus $end
$var reg 32 ) data_bus_wr [31:0] $end
$var reg 32 * data_bus_rd [31:0] $end
$var reg 1 + ack_bus $end
$var reg 1 , cpu_bus $end
$upscope $end


$scope module dut $end
$var wire 32 - maddr [31:0] $end
$var wire 1 . mrd $end
$var wire 1 / mwr $end
$var wire 4 0 mbe [3:0] $end
$var wire 32 1 mdwr [31:0] $end
$var wire 32 2 mdrd [31:0] $end
$var wire 2 3 mack [1:0] $end
$var wire 1 4 mcpu $end
$var wire 32 5 saddr [31:0] $end
$var wire 1 6 srd $end
$var wire 1 7 swr $end
$var wire 4 8 sbe [3:0] $end
$var wire 32 9 sdwr [31:0] $end
$var wire 32 : sdrd [31:0] $end
$var wire 2 ; sack [1:0] $end
$var wire 1 < scpu $end
$var wire 32 = taddr [31:0] $end
$var wire 1 > trd $end
$var wire 1 ? twr $end
$var wire 4 @ tbe [3:0] $end
$var wire 32 A tdwr [31:0] $end
$var wire 32 B tdrd [31:0] $end
$var wire 2 C tack [1:0] $end
$var wire 1 D tcpu $end
$var wire 32 E eaddr [31:0] $end
$var wire 1 F erd $end
$var wire 1 G ewr $end
$var wire 4 H ebe [3:0] $end
$var wire 32 I edwr [31:0] $end
$var wire 32 J edrd [31:0] $end
$var wire 2 K eack [1:0] $end
$var wire 1 L ecpu $end
$var reg 32 M add_bus [31:0] $end
$var reg 4 N byte_en [3:0] $end
$var wire 1 O wr_bus $end
$var wire 1 P rd_bus $end
$var reg 32 Q data_bus_wr [31:0] $end
$var wire 32 R data_bus_rd [31:0] $end
$var wire 1 S ack_bus $end
$var reg 1 T cpu_bus $end
$var wire 1 U clk $end
$var wire 1 V reset_n $end
$var reg 13 W astm_stm [12:0] $end
$var reg 16 X timeout_cnt [15:0] $end
$var reg 32 Y data_bus_rd_d [31:0] $end
$var reg 3 Z current_m [2:0] $end
$var reg 3 [ next_m [2:0] $end
$var reg 1 \ timeout_d $end
$var wire 1 ] timeout $end
$var wire 16 ^ timeout_limit [15:0] $end
$var wire 13 _ next_astm_stm [12:0] $end

$scope module assertions_inst $end
$var reg 4 ` byte_en [3:0] $end
$var reg 1 a wr_bus $end
$var reg 1 b rd_bus $end
$var reg 1 c ack_bus $end
$var reg 1 d clk $end
$var reg 1 e reset_n $end
$var reg 32 f add_bus [31:0] $end
$var reg 32 g data_bus_wr [31:0] $end
$var reg 32 h data_bus_rd [31:0] $end
$var reg 1 i cpu_bus $end

$scope begin unnamed$$_vcs_0 $end
$upscope $end

$upscope $end

$upscope $end

$upscope $end

$enddefinitions $end

#0
$dumpvars
0!
0"
bxxxxxxxxxxxxxxxxxxxxxxxxxxxxxxxx *
b00000000000000000000000000000000 )
b0000 &
b00000000000000000000000000000000 %
0T
0]
0\
b00000000000000000000000000000000 M
b0000000000001 W
b0000 N
b000 Z
b00000000000000000000000000000000 Y
b00000000000000000000000000000000 Q
b0xx0xx0xx0xxx _
bxxx [
b0000000000000000 X
b1111111111111110 ^
b00000000000000000000000000000000 f
b0000 `
bxxxxxxxxxxxxxxxxxxxxxxxxxxxxxxxx h
b00000000000000000000000000000000 g
0#
0d
0$
0e
0U
0V
0(
0b
0'
0a
0O
0P
x4
bxxxxxxxxxxxxxxxxxxxxxxxxxxxxxxxx -
x.
x/
bxxxx 0
bxxxxxxxxxxxxxxxxxxxxxxxxxxxxxxxx 1
b00000000000000000000000000000000 2
b00 3
x<
bxxxxxxxxxxxxxxxxxxxxxxxxxxxxxxxx 5
x6
x7
bxxxx 8
bxxxxxxxxxxxxxxxxxxxxxxxxxxxxxxxx 9
b00000000000000000000000000000000 :
b00 ;
xD
bxxxxxxxxxxxxxxxxxxxxxxxxxxxxxxxx =
x>
x?
bxxxx @
bxxxxxxxxxxxxxxxxxxxxxxxxxxxxxxxx A
b00000000000000000000000000000000 B
b00 C
xL
bxxxxxxxxxxxxxxxxxxxxxxxxxxxxxxxx E
xF
xG
bxxxx H
bxxxxxxxxxxxxxxxxxxxxxxxxxxxxxxxx I
b00000000000000000000000000000000 J
b00 K
bxxxxxxxxxxxxxxxxxxxxxxxxxxxxxxxx R
xS
x+
0,
xc
0i
$end
#5
1!
1U
1#
1d
#10
0!
0U
0#
0d
#15
1!
1U
1#
1d
#20
0!
0U
0#
0d
#25
1!
1U
1#
1d
#30
0!
0U
0#
0d
#35
1!
1U
1#
1d
#40
0!
0U
0#
0d
#45
1!
1U
1#
1d
1"
1V
1$
1e
0+
0S
0c
b00000000000000000000000000000000 *
b00000000000000000000000000000000 R
b00000000000000000000000000000000 h
b00000000000000000000000000000000 -
0.
0/
b0000 0
b00000000000000000000000000000000 1
04
b00000000000000000000000000000000 5
06
07
b0000 8
b00000000000000000000000000000000 9
0<
b00000000000000000000000000000000 =
0>
0?
b0000 @
b00000000000000000000000000000000 A
0D
b00000000000000000000000000000000 E
0F
0G
b0000 H
b00000000000000000000000000000000 I
0L
b111 [
b0000000000001 _
#50
0!
0U
0#
0d
#55
1!
1U
1#
1d
#60
0!
0U
0#
0d
#65
1!
1U
1#
1d
#70
0!
0U
0#
0d
#75
1!
1U
1#
1d
#80
0!
0U
0#
0d
#85
1!
1U
1#
1d
b00110110000110101000001100011000 E
1G
b0111 H
b11000100001100011100100100000000 I
1L
b011 [
b0010000000000 _
#90
0!
0U
0#
0d
#95
1!
1U
1#
1d
b00110110000110101000001100011000 M
b00110110000110101000001100011000 f
b00110110000110101000001100011000 %
b0111 N
b0111 `
b0111 &
1T
1i
1,
b11000100001100011100100100000000 Q
b11000100001100011100100100000000 g
b11000100001100011100100100000000 )
b011 Z
b0010000000000 W
1O
1'
1a
b111 [
b0000000000001 _
#100
0!
0U
0#
0d
#105
1!
1U
1#
1d
1+
1S
1c
b0000000000000001 X
#110
0!
0U
0#
0d
#115
1!
1U
1#
1d
0+
0S
0c
b00000000000000000000000000000000 M
b00000000000000000000000000000000 f
b00000000000000000000000000000000 %
b0000 N
b0000 `
b0000 &
0T
0i
0,
b00000000000000000000000000000000 Q
b00000000000000000000000000000000 g
b00000000000000000000000000000000 )
b1000000000000 W
b01 K
0O
0'
0a
b0000000000000010 X
#120
0!
0U
0#
0d
#125
1!
1U
1#
1d
b00110110000110101000001100011000 M
b00110110000110101000001100011000 f
b00110110000110101000001100011000 %
b0111 N
b0111 `
b0111 &
1T
1i
1,
b11000100001100011100100100000000 Q
b11000100001100011100100100000000 g
b11000100001100011100100100000000 )
b111 Z
b0000000000001 W
b00 K
b0000000000000000 X
b00011011001110101000011110000101 5
16
b1100 8
b01001100111101010011111001010010 9
1<
b00000000000000000000000000000000 E
0G
b0000 H
b00000000000000000000000000000000 I
b001 [
b0000000100000 _
#130
0!
0U
0#
0d
#135
1!
1U
1#
1d
b00011011001110101000011110000101 M
b00011011001110101000011110000101 f
b00011011001110101000011110000101 %
b1100 N
b1100 `
b1100 &
b01001100111101010011111001010010 Q
b01001100111101010011111001010010 g
b01001100111101010011111001010010 )
b001 Z
b0000000100000 W
1P
1(
1b
b111 [
b0000000000001 _
#140
0!
0U
0#
0d
#145
1!
1U
1#
1d
1+
1S
1c
b01000111010001010100000010001100 *
b01000111010001010100000010001100 R
b01000111010001010100000010001100 h
b0000000000000001 X
#150
0!
0U
0#
0d
#155
1!
1U
1#
1d
0+
0S
0c
b00000000000000000000000000000000 *
b00000000000000000000000000000000 R
b00000000000000000000000000000000 h
b00000000000000000000000000000000 M
b00000000000000000000000000000000 f
b00000000000000000000000000000000 %
b0000 N
b0000 `
b0000 &
0T
0i
0,
b00000000000000000000000000000000 Q
b00000000000000000000000000000000 g
b00000000000000000000000000000000 )
b01000111010001010100000010001100 Y
b01000111010001010100000010001100 J
b01000111010001010100000010001100 B
b01000111010001010100000010001100 :
b01000111010001010100000010001100 2
b0000001000000 W
b01 ;
0P
0(
0b
b0000000000000010 X
b00110110010110000011011110010101 E
1G
b1100 H
b00001010111111011101100010010101 I
b011 [
b0010000000000 _
#160
0!
0U
0#
0d
#165
1!
1U
1#
1d
b00110110010110000011011110010101 M
b00110110010110000011011110010101 f
b00110110010110000011011110010101 %
b1100 N
b1100 `
b1100 &
1T
1i
1,
b00001010111111011101100010010101 Q
b00001010111111011101100010010101 g
b00001010111111011101100010010101 )
b011 Z
b0010000000000 W
b00 ;
1O
1'
1a
b0000000000000000 X
b00000110111011001101011110001101 -
1/
b1010 0
b10010100010001101100001001101101 1
14
b00000000000000000000000000000000 5
06
b0000 8
b00000000000000000000000000000000 9
b00101000110010101000101111111101 =
1>
b0011 @
b01101111000100111110100011001001 A
1D
b000 [
b0000000000010 _
#170
0!
0U
0#
0d
#175
1!
1U
1#
1d
1+
1S
1c
b0000000000000001 X
#180
0!
0U
0#
0d
#185
1!
1U
1#
1d
0+
0S
0c
b00000000000000000000000000000000 M
b00000000000000000000000000000000 f
b00000000000000000000000000000000 %
b0000 N
b0000 `
b0000 &
0T
0i
0,
b00000000000000000000000000000000 Q
b00000000000000000000000000000000 g
b00000000000000000000000000000000 )
b00000000000000000000000000000000 Y
b00000000000000000000000000000000 J
b00000000000000000000000000000000 B
b00000000000000000000000000000000 :
b00000000000000000000000000000000 2
b1000000000000 W
b01 K
0O
0'
0a
b0000000000000010 X
#190
0!
0U
0#
0d
#195
1!
1U
1#
1d
b00000110111011001101011110001101 M
b00000110111011001101011110001101 f
b00000110111011001101011110001101 %
b1010 N
b1010 `
b1010 &
1T
1i
1,
b10010100010001101100001001101101 Q
b10010100010001101100001001101101 g
b10010100010001101100001001101101 )
b000 Z
b0000000000010 W
b00 K
1O
1'
1a
b0000000000000000 X
b00010111100100001110010110110001 5
17
b0100 8
b10010100011000101011100101010101 9
b00000000000000000000000000000000 E
0G
b0000 H
b00000000000000000000000000000000 I
b001 [
b0000000010000 _
#200
0!
0U
0#
0d
#205
1!
1U
1#
1d
1+
1S
1c
b0000000000000001 X
#210
0!
0U
0#
0d
#215
1!
1U
1#
1d
0+
0S
0c
b00000000000000000000000000000000 M
b00000000000000000000000000000000 f
b00000000000000000000000000000000 %
b0000 N
b0000 `
b0000 &
0T
0i
0,
b00000000000000000000000000000000 Q
b00000000000000000000000000000000 g
b00000000000000000000000000000000 )
b0000000001000 W
b01 3
0O
0'
0a
b0000000000000010 X
#220
0!
0U
0#
0d
#225
1!
1U
1#
1d
b00010111100100001110010110110001 M
b00010111100100001110010110110001 f
b00010111100100001110010110110001 %
b0100 N
b0100 `
b0100 &
1T
1i
1,
b10010100011000101011100101010101 Q
b10010100011000101011100101010101 g
b10010100011000101011100101010101 )
b001 Z
b0000000010000 W
b00 3
1O
1'
1a
b0000000000000000 X
b00000000000000000000000000000000 -
0/
b0000 0
b00000000000000000000000000000000 1
b010 [
b0000100000000 _
#230
0!
0U
0#
0d
#235
1!
1U
1#
1d
1+
1S
1c
b0000000000000001 X
#240
0!
0U
0#
0d
#245
1!
1U
1#
1d
0+
0S
0c
b00000000000000000000000000000000 M
b00000000000000000000000000000000 f
b00000000000000000000000000000000 %
b0000 N
b0000 `
b0000 &
0T
0i
0,
b00000000000000000000000000000000 Q
b00000000000000000000000000000000 g
b00000000000000000000000000000000 )
b0000001000000 W
b01 ;
0O
0'
0a
b0000000000000010 X
#250
0!
0U
0#
0d
#255
1!
1U
1#
1d
b00101000110010101000101111111101 M
b00101000110010101000101111111101 f
b00101000110010101000101111111101 %
b0011 N
b0011 `
b0011 &
1T
1i
1,
b01101111000100111110100011001001 Q
b01101111000100111110100011001001 g
b01101111000100111110100011001001 )
b010 Z
b0000100000000 W
b00 ;
1P
1(
1b
b0000000000000000 X
b00000000000000000000000000000000 5
07
b0000 8
b00000000000000000000000000000000 9
b111 [
b0000000000001 _
#260
0!
0U
0#
0d
#265
1!
1U
1#
1d
1+
1S
1c
b10111000011110010111010011111110 *
b10111000011110010111010011111110 R
b10111000011110010111010011111110 h
b0000000000000001 X
#270
0!
0U
0#
0d
#275
1!
1U
1#
1d
0+
0S
0c
b00000000000000000000000000000000 *
b00000000000000000000000000000000 R
b00000000000000000000000000000000 h
b00000000000000000000000000000000 M
b00000000000000000000000000000000 f
b00000000000000000000000000000000 %
b0000 N
b0000 `
b0000 &
0T
0i
0,
b00000000000000000000000000000000 Q
b00000000000000000000000000000000 g
b00000000000000000000000000000000 )
b10111000011110010111010011111110 Y
b10111000011110010111010011111110 J
b10111000011110010111010011111110 B
b10111000011110010111010011111110 :
b10111000011110010111010011111110 2
b0001000000000 W
b01 C
0P
0(
0b
b0000000000000010 X
#280
0!
0U
0#
0d
#285
1!
1U
1#
1d
1T
1i
1,
b111 Z
b0000000000001 W
b00 C
b0000000000000000 X
b00010111000100010101001001011000 5
16
b0101 8
b00011010111101000011000101110101 9
b00000000000000000000000000000000 =
0>
b0000 @
b00000000000000000000000000000000 A
b001 [
b0000000100000 _
#290
0!
0U
0#
0d
#295
1!
1U
1#
1d
b00010111000100010101001001011000 M
b00010111000100010101001001011000 f
b00010111000100010101001001011000 %
b0101 N
b0101 `
b0101 &
b00011010111101000011000101110101 Q
b00011010111101000011000101110101 g
b00011010111101000011000101110101 )
b001 Z
b0000000100000 W
1P
1(
1b
b111 [
b0000000000001 _
#300
0!
0U
0#
0d
#305
1!
1U
1#
1d
1+
1S
1c
b01000111000011000000111110111100 *
b01000111000011000000111110111100 R
b01000111000011000000111110111100 h
b0000000000000001 X
b00110111101101100100111101100101 E
1F
b0110 H
b11001000110000101011101000011001 I
b011 [
b0100000000000 _
#310
0!
0U
0#
0d
#315
1!
1U
1#
1d
0+
0S
0c
b00000000000000000000000000000000 *
b00000000000000000000000000000000 R
b00000000000000000000000000000000 h
b00000000000000000000000000000000 M
b00000000000000000000000000000000 f
b00000000000000000000000000000000 %
b0000 N
b0000 `
b0000 &
0T
0i
0,
b00000000000000000000000000000000 Q
b00000000000000000000000000000000 g
b00000000000000000000000000000000 )
b01000111000011000000111110111100 Y
b01000111000011000000111110111100 J
b01000111000011000000111110111100 B
b01000111000011000000111110111100 :
b01000111000011000000111110111100 2
b0000001000000 W
b01 ;
0P
0(
0b
b0000000000000010 X
b00100100111000011110110000110110 =
1?
b0011 @
b00100110110010100000011100001001 A
b010 [
b0000010000000 _
#320
0!
0U
0#
0d
#325
1!
1U
1#
1d
b00100100111000011110110000110110 M
b00100100111000011110110000110110 f
b00100100111000011110110000110110 %
b0011 N
b0011 `
b0011 &
1T
1i
1,
b00100110110010100000011100001001 Q
b00100110110010100000011100001001 g
b00100110110010100000011100001001 )
b010 Z
b0000010000000 W
b00 ;
1O
1'
1a
b0000000000000000 X
b00000000000000000000000000000000 5
06
b0000 8
b00000000000000000000000000000000 9
b011 [
b0100000000000 _
#330
0!
0U
0#
0d
#335
1!
1U
1#
1d
1+
1S
1c
b0000000000000001 X
b00001110001011101101011011000010 -
1/
b0110 0
b11111111100100010101001110010011 1
#340
0!
0U
0#
0d
#345
1!
1U
1#
1d
0+
0S
0c
b00000000000000000000000000000000 M
b00000000000000000000000000000000 f
b00000000000000000000000000000000 %
b0000 N
b0000 `
b0000 &
0T
0i
0,
b00000000000000000000000000000000 Q
b00000000000000000000000000000000 g
b00000000000000000000000000000000 )
b00000000000000000000000000000000 Y
b00000000000000000000000000000000 J
b00000000000000000000000000000000 B
b00000000000000000000000000000000 :
b00000000000000000000000000000000 2
b0001000000000 W
b01 C
0O
0'
0a
b0000000000000010 X
#350
0!
0U
0#
0d
#355
1!
1U
1#
1d
b00110111101101100100111101100101 M
b00110111101101100100111101100101 f
b00110111101101100100111101100101 %
b0110 N
b0110 `
b0110 &
1T
1i
1,
b11001000110000101011101000011001 Q
b11001000110000101011101000011001 g
b11001000110000101011101000011001 )
b011 Z
b0100000000000 W
b00 C
1P
1(
1b
b0000000000000000 X
b00000000000000000000000000000000 =
0?
b0000 @
b00000000000000000000000000000000 A
b000 [
b0000000000010 _
#360
0!
0U
0#
0d
#365
1!
1U
1#
1d
1+
1S
1c
b11010011101100001110110100001100 *
b11010011101100001110110100001100 R
b11010011101100001110110100001100 h
b0000000000000001 X
b00011100001110111001100100101101 5
16
b0111 8
b00101110011000000000001010101011 9
#370
0!
0U
0#
0d
#375
1!
1U
1#
1d
0+
0S
0c
b00000000000000000000000000000000 *
b00000000000000000000000000000000 R
b00000000000000000000000000000000 h
b00000000000000000000000000000000 M
b00000000000000000000000000000000 f
b00000000000000000000000000000000 %
b0000 N
b0000 `
b0000 &
0T
0i
0,
b00000000000000000000000000000000 Q
b00000000000000000000000000000000 g
b00000000000000000000000000000000 )
b11010011101100001110110100001100 Y
b11010011101100001110110100001100 J
b11010011101100001110110100001100 B
b11010011101100001110110100001100 :
b11010011101100001110110100001100 2
b1000000000000 W
b01 K
0P
0(
0b
b0000000000000010 X
#380
0!
0U
0#
0d
#385
1!
1U
1#
1d
b00001110001011101101011011000010 M
b00001110001011101101011011000010 f
b00001110001011101101011011000010 %
b0110 N
b0110 `
b0110 &
1T
1i
1,
b11111111100100010101001110010011 Q
b11111111100100010101001110010011 g
b11111111100100010101001110010011 )
b000 Z
b0000000000010 W
b00 K
1O
1'
1a
b0000000000000000 X
b00000000000000000000000000000000 E
0F
b0000 H
b00000000000000000000000000000000 I
b001 [
b0000000100000 _
#390
0!
0U
0#
0d
#395
1!
1U
1#
1d
1+
1S
1c
b0000000000000001 X
#400
0!
0U
0#
0d
#405
1!
1U
1#
1d
0+
0S
0c
b00000000000000000000000000000000 M
b00000000000000000000000000000000 f
b00000000000000000000000000000000 %
b0000 N
b0000 `
b0000 &
0T
0i
0,
b00000000000000000000000000000000 Q
b00000000000000000000000000000000 g
b00000000000000000000000000000000 )
b00000000000000000000000000000000 Y
b00000000000000000000000000000000 J
b00000000000000000000000000000000 B
b00000000000000000000000000000000 :
b00000000000000000000000000000000 2
b0000000001000 W
b01 3
0O
0'
0a
b0000000000000010 X
b00101110101010000001001110010011 =
1?
b0110 @
b11000001101111101011001010000111 A
#410
0!
0U
0#
0d
#415
1!
1U
1#
1d
b00011100001110111001100100101101 M
b00011100001110111001100100101101 f
b00011100001110111001100100101101 %
b0111 N
b0111 `
b0111 &
1T
1i
1,
b00101110011000000000001010101011 Q
b00101110011000000000001010101011 g
b00101110011000000000001010101011 )
b001 Z
b0000000100000 W
b00 3
1P
1(
1b
b0000000000000000 X
b00000000000000000000000000000000 -
0/
b0000 0
b00000000000000000000000000000000 1
b010 [
b0000010000000 _
#420
0!
0U
0#
0d
#425
1!
1U
1#
1d
1+
1S
1c
b01011100011101110111000101110111 *
b01011100011101110111000101110111 R
b01011100011101110111000101110111 h
b0000000000000001 X
#430
0!
0U
0#
0d
#435
1!
1U
1#
1d
0+
0S
0c
b00000000000000000000000000000000 *
b00000000000000000000000000000000 R
b00000000000000000000000000000000 h
b00000000000000000000000000000000 M
b00000000000000000000000000000000 f
b00000000000000000000000000000000 %
b0000 N
b0000 `
b0000 &
0T
0i
0,
b00000000000000000000000000000000 Q
b00000000000000000000000000000000 g
b00000000000000000000000000000000 )
b01011100011101110111000101110111 Y
b01011100011101110111000101110111 J
b01011100011101110111000101110111 B
b01011100011101110111000101110111 :
b01011100011101110111000101110111 2
b0000001000000 W
b01 ;
0P
0(
0b
b0000000000000010 X
#440
0!
0U
0#
0d
#445
1!
1U
1#
1d
b00101110101010000001001110010011 M
b00101110101010000001001110010011 f
b00101110101010000001001110010011 %
b0110 N
b0110 `
b0110 &
1T
1i
1,
b11000001101111101011001010000111 Q
b11000001101111101011001010000111 g
b11000001101111101011001010000111 )
b010 Z
b0000010000000 W
b00 ;
1O
1'
1a
b0000000000000000 X
b00000000000000000000000000000000 5
06
b0000 8
b00000000000000000000000000000000 9
b111 [
b0000000000001 _
#450
0!
0U
0#
0d
#455
1!
1U
1#
1d
1+
1S
1c
b0000000000000001 X
#460
0!
0U
0#
0d
#465
1!
1U
1#
1d
0+
0S
0c
b00000000000000000000000000000000 M
b00000000000000000000000000000000 f
b00000000000000000000000000000000 %
b0000 N
b0000 `
b0000 &
0T
0i
0,
b00000000000000000000000000000000 Q
b00000000000000000000000000000000 g
b00000000000000000000000000000000 )
b00000000000000000000000000000000 Y
b00000000000000000000000000000000 J
b00000000000000000000000000000000 B
b00000000000000000000000000000000 :
b00000000000000000000000000000000 2
b0001000000000 W
b01 C
0O
0'
0a
b0000000000000010 X
#470
0!
0U
0#
0d
#475
1!
1U
1#
1d
1T
1i
1,
b111 Z
b0000000000001 W
b00 C
b0000000000000000 X
b00000000000000000000000000000000 =
0?
b0000 @
b00000000000000000000000000000000 A
b00111000111100010010000110000010 E
1F
b1011 H
b10100000011101010111111100111110 I
b011 [
b0100000000000 _
#480
0!
0U
0#
0d
#485
1!
1U
1#
1d
b00111000111100010010000110000010 M
b00111000111100010010000110000010 f
b00111000111100010010000110000010 %
b1011 N
b1011 `
b1011 &
b10100000011101010111111100111110 Q
b10100000011101010111111100111110 g
b10100000011101010111111100111110 )
b011 Z
b0100000000000 W
1P
1(
1b
b111 [
b0000000000001 _
#490
0!
0U
0#
0d
#495
1!
1U
1#
1d
1+
1S
1c
b01101011011001100010101000100101 *
b01101011011001100010101000100101 R
b01101011011001100010101000100101 h
b0000000000000001 X
#500
0!
0U
0#
0d
#505
1!
1U
1#
1d
0+
0S
0c
b00000000000000000000000000000000 *
b00000000000000000000000000000000 R
b00000000000000000000000000000000 h
b00000000000000000000000000000000 M
b00000000000000000000000000000000 f
b00000000000000000000000000000000 %
b0000 N
b0000 `
b0000 &
0T
0i
0,
b00000000000000000000000000000000 Q
b00000000000000000000000000000000 g
b00000000000000000000000000000000 )
b01101011011001100010101000100101 Y
b01101011011001100010101000100101 J
b01101011011001100010101000100101 B
b01101011011001100010101000100101 :
b01101011011001100010101000100101 2
b1000000000000 W
b01 K
0P
0(
0b
b0000000000000010 X
b00001001101101100101001001001011 -
1.
b1111 0
b01001000011100100000100011010100 1
b000 [
b0000000000100 _
#510
0!
0U
0#
0d
#515
1!
1U
1#
1d
b00001001101101100101001001001011 M
b00001001101101100101001001001011 f
b00001001101101100101001001001011 %
b1111 N
b1111 `
b1111 &
1T
1i
1,
b01001000011100100000100011010100 Q
b01001000011100100000100011010100 g
b01001000011100100000100011010100 )
b000 Z
b0000000000100 W
b00 K
1P
1(
1b
b0000000000000000 X
b00000000000000000000000000000000 E
0F
b0000 H
b00000000000000000000000000000000 I
b111 [
b0000000000001 _
#520
0!
0U
0#
0d
#525
1!
1U
1#
1d
1+
1S
1c
b00001011111001110000011010010000 *
b00001011111001110000011010010000 R
b00001011111001110000011010010000 h
b0000000000000001 X
#530
0!
0U
0#
0d
#535
1!
1U
1#
1d
0+
0S
0c
b00000000000000000000000000000000 *
b00000000000000000000000000000000 R
b00000000000000000000000000000000 h
b00000000000000000000000000000000 M
b00000000000000000000000000000000 f
b00000000000000000000000000000000 %
b0000 N
b0000 `
b0000 &
0T
0i
0,
b00000000000000000000000000000000 Q
b00000000000000000000000000000000 g
b00000000000000000000000000000000 )
b00001011111001110000011010010000 Y
b00001011111001110000011010010000 J
b00001011111001110000011010010000 B
b00001011111001110000011010010000 :
b00001011111001110000011010010000 2
b0000000001000 W
b01 3
0P
0(
0b
b0000000000000010 X
#540
0!
0U
0#
0d
#545
1!
1U
1#
1d
1T
1i
1,
b111 Z
b0000000000001 W
b00 3
b0000000000000000 X
b00000000000000000000000000000000 -
0.
b0000 0
b00000000000000000000000000000000 1
b00010000100001001011110010110100 5
17
b1001 8
b11110011110001010001110000111010 9
b001 [
b0000000010000 _
#550
0!
0U
0#
0d
#555
1!
1U
1#
1d
b00010000100001001011110010110100 M
b00010000100001001011110010110100 f
b00010000100001001011110010110100 %
b1001 N
b1001 `
b1001 &
b11110011110001010001110000111010 Q
b11110011110001010001110000111010 g
b11110011110001010001110000111010 )
b001 Z
b0000000010000 W
1O
1'
1a
b00110001010010100011101000101101 E
1G
b0111 H
b11010110010110001100110001100110 I
b011 [
b0010000000000 _
#560
0!
0U
0#
0d
#565
1!
1U
1#
1d
1+
1S
1c
b0000000000000001 X
#570
0!
0U
0#
0d
#575
1!
1U
1#
1d
0+
0S
0c
b00000000000000000000000000000000 M
b00000000000000000000000000000000 f
b00000000000000000000000000000000 %
b0000 N
b0000 `
b0000 &
0T
0i
0,
b00000000000000000000000000000000 Q
b00000000000000000000000000000000 g
b00000000000000000000000000000000 )
b00000000000000000000000000000000 Y
b00000000000000000000000000000000 J
b00000000000000000000000000000000 B
b00000000000000000000000000000000 :
b00000000000000000000000000000000 2
b0000001000000 W
b01 ;
0O
0'
0a
b0000000000000010 X
b00100000100100000010110100101111 =
1?
b0110 @
b11000100010110010110010110101101 A
b010 [
b0000010000000 _
#580
0!
0U
0#
0d
#585
1!
1U
1#
1d
b00100000100100000010110100101111 M
b00100000100100000010110100101111 f
b00100000100100000010110100101111 %
b0110 N
b0110 `
b0110 &
1T
1i
1,
b11000100010110010110010110101101 Q
b11000100010110010110010110101101 g
b11000100010110010110010110101101 )
b010 Z
b0000010000000 W
b00 ;
1O
1'
1a
b0000000000000000 X
b00000000000000000000000000000000 5
07
b0000 8
b00000000000000000000000000000000 9
b011 [
b0010000000000 _
#590
0!
0U
0#
0d
#595
1!
1U
1#
1d
1+
1S
1c
b0000000000000001 X
#600
0!
0U
0#
0d
#605
1!
1U
1#
1d
0+
0S
0c
b00000000000000000000000000000000 M
b00000000000000000000000000000000 f
b00000000000000000000000000000000 %
b0000 N
b0000 `
b0000 &
0T
0i
0,
b00000000000000000000000000000000 Q
b00000000000000000000000000000000 g
b00000000000000000000000000000000 )
b0001000000000 W
b01 C
0O
0'
0a
b0000000000000010 X
#610
0!
0U
0#
0d
#615
1!
1U
1#
1d
b00110001010010100011101000101101 M
b00110001010010100011101000101101 f
b00110001010010100011101000101101 %
b0111 N
b0111 `
b0111 &
1T
1i
1,
b11010110010110001100110001100110 Q
b11010110010110001100110001100110 g
b11010110010110001100110001100110 )
b011 Z
b0010000000000 W
b00 C
1O
1'
1a
b0000000000000000 X
b00000000000000000000000000000000 =
0?
b0000 @
b00000000000000000000000000000000 A
b111 [
b0000000000001 _
#620
0!
0U
0#
0d
#625
1!
1U
1#
1d
1+
1S
1c
b0000000000000001 X
b00000100001011101100110010100110 -
1/
b1011 0
b00010010101000000100110111000110 1
b00010110001110010011111100100100 5
17
b1001 8
b01100100110111001100001011001110 9
b000 [
b0000000000010 _
#630
0!
0U
0#
0d
#635
1!
1U
1#
1d
0+
0S
0c
b00000000000000000000000000000000 M
b00000000000000000000000000000000 f
b00000000000000000000000000000000 %
b0000 N
b0000 `
b0000 &
0T
0i
0,
b00000000000000000000000000000000 Q
b00000000000000000000000000000000 g
b00000000000000000000000000000000 )
b1000000000000 W
b01 K
0O
0'
0a
b0000000000000010 X
#640
0!
0U
0#
0d
#645
1!
1U
1#
1d
b00000100001011101100110010100110 M
b00000100001011101100110010100110 f
b00000100001011101100110010100110 %
b1011 N
b1011 `
b1011 &
1T
1i
1,
b00010010101000000100110111000110 Q
b00010010101000000100110111000110 g
b00010010101000000100110111000110 )
b000 Z
b0000000000010 W
b00 K
1O
1'
1a
b0000000000000000 X
b00000000000000000000000000000000 E
0G
b0000 H
b00000000000000000000000000000000 I
b001 [
b0000000010000 _
#650
0!
0U
0#
0d
#655
1!
1U
1#
1d
1+
1S
1c
b0000000000000001 X
#660
0!
0U
0#
0d
#665
1!
1U
1#
1d
0+
0S
0c
b00000000000000000000000000000000 M
b00000000000000000000000000000000 f
b00000000000000000000000000000000 %
b0000 N
b0000 `
b0000 &
0T
0i
0,
b00000000000000000000000000000000 Q
b00000000000000000000000000000000 g
b00000000000000000000000000000000 )
b0000000001000 W
b01 3
0O
0'
0a
b0000000000000010 X
#670
0!
0U
0#
0d
#675
1!
1U
1#
1d
b00010110001110010011111100100100 M
b00010110001110010011111100100100 f
b00010110001110010011111100100100 %
b1001 N
b1001 `
b1001 &
1T
1i
1,
b01100100110111001100001011001110 Q
b01100100110111001100001011001110 g
b01100100110111001100001011001110 )
b001 Z
b0000000010000 W
b00 3
1O
1'
1a
b0000000000000000 X
b00000000000000000000000000000000 -
0/
b0000 0
b00000000000000000000000000000000 1
b111 [
b0000000000001 _
#680
0!
0U
0#
0d
#685
1!
1U
1#
1d
1+
1S
1c
b0000000000000001 X
#690
0!
0U
0#
0d
#695
1!
1U
1#
1d
0+
0S
0c
b00000000000000000000000000000000 M
b00000000000000000000000000000000 f
b00000000000000000000000000000000 %
b0000 N
b0000 `
b0000 &
0T
0i
0,
b00000000000000000000000000000000 Q
b00000000000000000000000000000000 g
b00000000000000000000000000000000 )
b0000001000000 W
b01 ;
0O
0'
0a
b0000000000000010 X
b00101111101101010101111101011010 =
1>
b1000 @
b01110000110000001111101001100001 A
b010 [
b0000100000000 _
#700
0!
0U
0#
0d
